***************************************************************************************************
Python for SPARTA
***************************************************************************************************

.. automodule:: sparta_tools.sparta
    :members:
